Benjamin과 Fumiko의 아티클 비교 분석
…
주로 중국과 대만에서 기자 활동을 했던만큼 Benjamin의 아티클에는 중국 관련 키워드가 많이 등장했습니다.다만 전처리 과정에서 beijing과 같이 어미가 삭제되어 기존의 뜻을 파악하기 힘들다는 한계점이 있습니다.

# lda 모델 생성 (k = 5)                        
lda.model <- LDA(dtm, k = 5, method = 'Gibbs', control = list(alpha =0.1, seed = 0))
ap_topics <- tidy(lda.model, matrix = "beta")
ap_topics

## # A tibble: 12,870 x 3
##    topic term         beta
##    <int> <chr>       <dbl>
##  1     1 abandon 0.0000357
##  2     2 abandon 0.000429 
##  3     3 abandon 0.0000228
##  4     4 abandon 0.000552 
##  5     5 abandon 0.000540 
##  6     1 abil    0.0000357
##  7     2 abil    0.000429 
##  8     3 abil    0.0000228
##  9     4 abil    0.0000263
## 10     5 abil    0.0000491
## # ... with 12,860 more rows
…
Fumiko Fujisaki의 아티클에는 bank, finance, market, yen처럼 경제에 관한 키워드들이 많이 등장하고 있습니다. 이를 통해 Fumiko Fujisaki는 주로 경제 관련 아티클을 작성한다고 판단할 수 있습니다.

# lda 모델 생성 (k = 5)                        
lda.model <- LDA(dtm, k = 5, method = 'Gibbs', control = list(alpha =0.1, seed = 0))
ap_topics <- tidy(lda.model, matrix = "beta")
ap_topics

## # A tibble: 10,015 x 3
##    topic term       beta
##    <int> <chr>     <dbl>
##  1     1 aaa   0.000255 
##  2     2 aaa   0.0000255
##  3     3 aaa   0.0000358
##  4     4 aaa   0.0000362
##  5     5 aaa   0.0000329
##  6     1 abl   0.00188  
##  7     2 abl   0.00130  
##  8     3 abl   0.0000358
##  9     4 abl   0.0000362
## 10     5 abl   0.0000329
## # ... with 10,005 more rows
…
